PCBNEW-LibModule-V1  Сб 31 авг 2013 11:10:46
# encoding utf-8
$INDEX
PIN_ARRAY_3x3
$EndINDEX
$MODULE PIN_ARRAY_3x3
Po 0 0 0 15 52217AC2 00000000 ~~
Li PIN_ARRAY_3x3
Sc 00000000
AR 
Op 0 0 0
T0 0 2000 600 600 0 120 N V 21 N "PIN_ARRAY_3x3"
T1 0 -2000 600 600 0 120 N V 21 N "VAL**"
$PAD
Sh "1" C 591 591 0 0 0
Dr 315 0 0
At STD N 00E0FFFF
Ne 0 ""
Po -1000 -1000
$EndPAD
$PAD
Sh "2" C 591 591 0 0 0
Dr 315 0 0
At STD N 00E0FFFF
Ne 0 ""
Po 0 -1000
$EndPAD
$PAD
Sh "3" C 591 591 0 0 0
Dr 315 0 0
At STD N 00E0FFFF
Ne 0 ""
Po 1000 -1000
$EndPAD
$PAD
Sh "4" C 591 591 0 0 0
Dr 315 0 0
At STD N 00E0FFFF
Ne 0 ""
Po -1000 0
$EndPAD
$PAD
Sh "5" C 591 591 0 0 0
Dr 315 0 0
At STD N 00E0FFFF
Ne 0 ""
Po 0 0
$EndPAD
$PAD
Sh "6" C 591 591 0 0 0
Dr 315 0 0
At STD N 00E0FFFF
Ne 0 ""
Po 1000 0
$EndPAD
$PAD
Sh "7" C 591 591 0 0 0
Dr 315 0 0
At STD N 00E0FFFF
Ne 0 ""
Po -1000 1000
$EndPAD
$PAD
Sh "8" C 591 591 0 0 0
Dr 315 0 0
At STD N 00E0FFFF
Ne 0 ""
Po 0 1000
$EndPAD
$PAD
Sh "9" C 591 591 0 0 0
Dr 315 0 0
At STD N 00E0FFFF
Ne 0 ""
Po 1000 1000
$EndPAD
$EndMODULE  PIN_ARRAY_3x3
$EndLIBRARY
