EESchema Schematic File Version 2  date Вт 03 сен 2013 16:34:14
LIBS:power
LIBS:device
LIBS:transistors
LIBS:conn
LIBS:linear
LIBS:regul
LIBS:74xx
LIBS:cmos4000
LIBS:adc-dac
LIBS:memory
LIBS:xilinx
LIBS:special
LIBS:microcontrollers
LIBS:dsp
LIBS:microchip
LIBS:analog_switches
LIBS:motorola
LIBS:texas
LIBS:intel
LIBS:audio
LIBS:interface
LIBS:digital-audio
LIBS:philips
LIBS:display
LIBS:cypress
LIBS:siliconi
LIBS:opto
LIBS:atmel
LIBS:contrib
LIBS:valves
LIBS:step_stick
LIBS:project-cache
EELAYER 25  0
EELAYER END
$Descr A4 11700 8267
encoding utf-8
Sheet 1 1
Title ""
Date "2 sep 2013"
Rev ""
Comp ""
Comment1 ""
Comment2 ""
Comment3 ""
Comment4 ""
$EndDescr
Wire Wire Line
	2000 3650 2100 3650
Wire Wire Line
	2100 3650 2100 4050
Wire Wire Line
	10000 6450 9100 6450
Wire Wire Line
	9600 6950 9600 7050
Wire Wire Line
	9600 5750 9600 5850
Wire Wire Line
	9600 6550 9600 6350
Connection ~ 9600 6450
Wire Wire Line
	10000 6650 9900 6650
Wire Wire Line
	9900 6650 9900 7050
Wire Wire Line
	9900 5500 9900 5100
Wire Wire Line
	9900 5100 10000 5100
Connection ~ 9600 4900
Wire Wire Line
	9600 5000 9600 4800
Wire Wire Line
	3100 950  3100 1100
Wire Wire Line
	8100 6950 8100 1050
Connection ~ 8100 4650
Connection ~ 8100 5250
Connection ~ 8100 4450
Wire Wire Line
	8100 4450 8300 4450
Wire Wire Line
	6000 1650 5450 1650
Wire Wire Line
	5450 1850 5450 1750
Wire Wire Line
	5450 1050 5450 950 
Wire Wire Line
	5450 1750 6000 1750
Wire Wire Line
	5100 6050 5100 6150
Wire Wire Line
	5200 7450 5200 7350
Wire Wire Line
	5100 7250 5100 7350
Wire Wire Line
	5100 7350 5300 7350
Wire Wire Line
	5300 7350 5300 6950
Wire Wire Line
	5300 6950 5400 6950
Connection ~ 5200 7350
Wire Wire Line
	5100 6650 5100 6850
Connection ~ 5100 6750
Wire Wire Line
	5400 6750 4800 6750
Wire Wire Line
	5100 2850 5100 2950
Wire Wire Line
	5200 4250 5200 4150
Wire Wire Line
	5100 4050 5100 4150
Wire Wire Line
	5000 2450 4800 2450
Wire Wire Line
	4900 2650 4900 2550
Wire Wire Line
	4900 2550 5000 2550
Wire Wire Line
	1900 4800 2200 4800
Wire Wire Line
	2200 4800 2200 6750
Connection ~ 1900 6950
Wire Wire Line
	1900 6950 2100 6950
Wire Wire Line
	2400 6250 1900 6250
Wire Bus Line
	2500 6350 2500 7000
Wire Wire Line
	1550 6250 1550 6350
Wire Wire Line
	1900 6850 1900 7050
Connection ~ 2000 4500
Wire Wire Line
	2000 4400 2000 4600
Wire Wire Line
	6600 1150 6200 1150
Wire Wire Line
	6600 2350 6200 2350
Wire Wire Line
	6600 1750 6200 1750
Wire Wire Line
	6200 1550 6600 1550
Connection ~ 2000 5400
Wire Wire Line
	2000 5400 1900 5400
Wire Wire Line
	1900 4700 2000 4700
Wire Wire Line
	2000 4700 2000 5800
Wire Wire Line
	1100 5700 1000 5700
Wire Wire Line
	9400 3800 9100 3800
Wire Wire Line
	9400 2400 9100 2400
Wire Wire Line
	10500 4100 10500 2300
Wire Wire Line
	10500 4100 10600 4100
Wire Wire Line
	10000 3800 9900 3800
Wire Wire Line
	10300 3600 10300 3500
Wire Wire Line
	10300 3500 10600 3500
Connection ~ 10400 3400
Wire Wire Line
	10400 3400 10300 3400
Wire Wire Line
	10300 3400 10300 3300
Wire Wire Line
	10300 2900 10300 2800
Wire Wire Line
	10300 2800 10600 2800
Wire Wire Line
	10300 2700 10400 2700
Wire Wire Line
	10300 2700 10300 2600
Connection ~ 8100 6850
Wire Wire Line
	8100 6850 8300 6850
Connection ~ 8200 6550
Wire Wire Line
	8300 6650 8200 6650
Wire Wire Line
	8200 6650 8200 5350
Wire Wire Line
	8200 1750 8200 4250
Connection ~ 8100 2250
Connection ~ 6500 4950
Wire Wire Line
	6500 950  6500 6150
Connection ~ 8000 4750
Wire Wire Line
	8000 950  8000 5950
Connection ~ 8200 4150
Connection ~ 8000 1150
Connection ~ 8200 2950
Connection ~ 6500 2550
Wire Wire Line
	10300 2200 10300 2100
Wire Wire Line
	10300 2100 10600 2100
Wire Wire Line
	9900 2400 10000 2400
Wire Bus Line
	6100 2100 6100 6900
Wire Bus Line
	9000 6800 9000 850 
Wire Bus Line
	6100 1900 6100 850 
Wire Wire Line
	8200 1750 7900 1750
Wire Wire Line
	8100 1050 7900 1050
Wire Wire Line
	6500 1250 6600 1250
Wire Wire Line
	6500 1350 6600 1350
Connection ~ 6500 1250
Wire Wire Line
	8000 1150 7900 1150
Wire Wire Line
	7900 1650 8100 1650
Connection ~ 8100 1650
Wire Wire Line
	6600 1450 6200 1450
Wire Wire Line
	6600 1650 6200 1650
Wire Bus Line
	4600 2000 3750 2000
Wire Wire Line
	2600 1350 2100 1350
Wire Wire Line
	2600 1350 2600 1850
Connection ~ 3100 1850
Wire Wire Line
	6600 2850 6200 2850
Wire Wire Line
	6600 2650 6200 2650
Connection ~ 8100 2850
Wire Wire Line
	8100 2850 7900 2850
Wire Wire Line
	8000 2350 7900 2350
Connection ~ 6500 2450
Wire Wire Line
	6500 2550 6600 2550
Connection ~ 2300 1750
Wire Wire Line
	750  1600 750  1750
Wire Wire Line
	4500 1350 4800 1350
Wire Wire Line
	4500 1150 4800 1150
Connection ~ 3200 1850
Wire Wire Line
	3100 1950 3100 1850
Connection ~ 4800 1750
Wire Wire Line
	4600 1750 4800 1750
Wire Wire Line
	2300 2650 2300 2450
Wire Wire Line
	2300 2650 2400 2650
Wire Wire Line
	1050 1500 1050 1600
Connection ~ 1400 1000
Wire Wire Line
	1400 1000 1400 1100
Wire Wire Line
	1800 1600 1800 1500
Wire Wire Line
	4600 5650 4400 5650
Wire Wire Line
	4400 5450 4600 5450
Wire Wire Line
	4600 5350 4400 5350
Wire Wire Line
	4600 5150 4400 5150
Wire Wire Line
	4600 4950 4400 4950
Wire Wire Line
	4600 4650 4400 4650
Wire Wire Line
	4600 4450 4400 4450
Wire Wire Line
	4600 4250 4400 4250
Wire Wire Line
	4600 4050 4400 4050
Wire Wire Line
	4400 3850 4600 3850
Wire Wire Line
	4400 3650 4600 3650
Wire Wire Line
	4400 3450 4600 3450
Wire Wire Line
	4400 3250 4600 3250
Wire Wire Line
	2300 1750 2300 2250
Wire Wire Line
	4250 1250 3750 1250
Wire Wire Line
	4250 1350 4000 1350
Wire Wire Line
	4400 2850 4600 2850
Wire Wire Line
	4400 2650 4600 2650
Wire Wire Line
	4400 2450 4600 2450
Wire Wire Line
	4400 2950 4600 2950
Wire Wire Line
	2300 2450 1800 2450
Wire Wire Line
	1050 1000 1050 1100
Wire Wire Line
	2300 2250 2400 2250
Wire Wire Line
	3100 1500 3100 1600
Wire Wire Line
	2300 3450 2300 3550
Connection ~ 3400 6050
Wire Wire Line
	3350 6050 3350 5950
Wire Wire Line
	3550 5950 3550 6050
Wire Wire Line
	1300 3350 1300 2450
Wire Wire Line
	1300 2450 1400 2450
Connection ~ 2100 1000
Wire Wire Line
	1900 2550 1900 2450
Connection ~ 1900 2450
Wire Wire Line
	1900 3150 1900 3250
Connection ~ 1900 3250
Wire Wire Line
	1400 3250 1300 3250
Connection ~ 1300 3250
Wire Wire Line
	3450 5950 3450 6050
Connection ~ 3450 6050
Wire Wire Line
	3250 5950 3250 6050
Wire Wire Line
	3250 6050 3550 6050
Connection ~ 3350 6050
Wire Wire Line
	2300 3950 2300 4050
Wire Wire Line
	1800 3250 2300 3250
Wire Wire Line
	4600 2250 4400 2250
Wire Wire Line
	4400 2350 4600 2350
Wire Wire Line
	4400 2550 4600 2550
Wire Wire Line
	4400 2750 4600 2750
Wire Bus Line
	3650 1900 3650 1250
Wire Wire Line
	4250 1150 3750 1150
Wire Wire Line
	4000 1350 4000 1750
Wire Wire Line
	4400 3150 4600 3150
Wire Wire Line
	4400 3350 4600 3350
Wire Wire Line
	4400 3550 4600 3550
Wire Wire Line
	4400 3750 4600 3750
Wire Wire Line
	4400 4150 4600 4150
Wire Wire Line
	4400 4350 4600 4350
Wire Wire Line
	4400 4550 4600 4550
Wire Wire Line
	4400 4750 4600 4750
Wire Wire Line
	4400 5050 4600 5050
Wire Wire Line
	4400 5250 4600 5250
Wire Wire Line
	4400 5550 4600 5550
Wire Wire Line
	4800 1150 4800 950 
Wire Wire Line
	3750 1550 4900 1550
Wire Wire Line
	4900 1550 4900 1250
Wire Wire Line
	1800 1000 1800 1100
Connection ~ 1800 1000
Wire Wire Line
	1400 1600 1400 1500
Wire Wire Line
	3400 6050 3400 6150
Wire Wire Line
	2400 3050 2300 3050
Wire Wire Line
	2300 3050 2300 3250
Wire Wire Line
	4800 1350 4800 1850
Connection ~ 4000 1750
Wire Wire Line
	3300 1950 3300 1850
Wire Wire Line
	4900 1250 4500 1250
Wire Wire Line
	2200 1000 750  1000
Wire Wire Line
	750  1000 750  1100
Connection ~ 1050 1000
Wire Wire Line
	6500 2450 6600 2450
Wire Wire Line
	6600 2950 6200 2950
Wire Wire Line
	8100 2250 7900 2250
Wire Wire Line
	8200 2950 7900 2950
Wire Wire Line
	6200 2750 6600 2750
Wire Wire Line
	6600 3950 6200 3950
Wire Wire Line
	7900 4150 8200 4150
Wire Wire Line
	8100 3450 7900 3450
Wire Wire Line
	6600 4150 6200 4150
Wire Wire Line
	6500 3650 6600 3650
Wire Wire Line
	6600 3450 6200 3450
Wire Wire Line
	6600 3550 6200 3550
Wire Wire Line
	6500 3750 6600 3750
Connection ~ 6500 3650
Wire Wire Line
	8000 3550 7900 3550
Wire Wire Line
	8100 4050 7900 4050
Connection ~ 8100 4050
Wire Wire Line
	6200 3850 6600 3850
Wire Wire Line
	6200 4050 6600 4050
Wire Wire Line
	6600 5250 6200 5250
Wire Wire Line
	6600 5050 6200 5050
Wire Wire Line
	8100 5250 7900 5250
Wire Wire Line
	7900 4750 8000 4750
Connection ~ 6500 4850
Wire Wire Line
	6500 4950 6600 4950
Wire Wire Line
	6600 4750 6200 4750
Wire Wire Line
	6600 4650 6200 4650
Wire Wire Line
	6500 4850 6600 4850
Wire Wire Line
	6600 5350 6200 5350
Wire Wire Line
	8100 4650 7900 4650
Wire Wire Line
	8200 5350 7900 5350
Wire Wire Line
	6200 5150 6600 5150
Wire Wire Line
	6600 6350 6200 6350
Wire Wire Line
	7900 6550 8200 6550
Wire Wire Line
	8100 5850 7900 5850
Wire Wire Line
	6600 6550 6200 6550
Wire Wire Line
	6600 6050 6500 6050
Wire Wire Line
	6600 5850 6200 5850
Wire Wire Line
	6600 5950 6200 5950
Wire Wire Line
	6500 6150 6600 6150
Connection ~ 6500 6050
Wire Wire Line
	8000 5950 7900 5950
Wire Wire Line
	8100 6450 7900 6450
Connection ~ 8100 6450
Wire Wire Line
	6200 6250 6600 6250
Wire Wire Line
	6200 6450 6600 6450
Wire Wire Line
	2800 1000 3500 1000
Wire Wire Line
	3500 1000 3500 1950
Connection ~ 3100 1000
Wire Wire Line
	2100 1350 2100 950 
Wire Wire Line
	3200 1850 3200 1950
Wire Wire Line
	3300 1850 2600 1850
Wire Wire Line
	750  1750 4200 1750
Wire Bus Line
	6200 750  8900 750 
Connection ~ 6500 1350
Connection ~ 6500 3750
Connection ~ 8000 2350
Connection ~ 8000 3550
Connection ~ 8100 3450
Connection ~ 8100 5850
Wire Wire Line
	10500 2300 10600 2300
Wire Wire Line
	10600 3000 10500 3000
Connection ~ 10500 3000
Wire Wire Line
	10000 3100 9900 3100
Wire Wire Line
	10500 3700 10600 3700
Connection ~ 10500 3700
Wire Wire Line
	10300 4000 10300 4100
Wire Wire Line
	10300 4100 10400 4100
Connection ~ 10400 4100
Wire Wire Line
	10400 4300 10600 4300
Connection ~ 10400 4300
Wire Wire Line
	10400 2700 10400 4400
Wire Wire Line
	9400 3100 9100 3100
Wire Wire Line
	2000 5100 1900 5100
Connection ~ 2000 5100
Wire Wire Line
	1100 4900 1000 4900
Wire Wire Line
	1000 4900 1000 5800
Connection ~ 1000 5700
Wire Bus Line
	4800 2000 6000 2000
Wire Wire Line
	6600 2250 6200 2250
Wire Wire Line
	6600 1050 6200 1050
Wire Wire Line
	2000 4600 1900 4600
Wire Wire Line
	1900 4500 2000 4500
Wire Wire Line
	1900 7550 1900 7650
Wire Wire Line
	1900 6250 1900 6350
Wire Bus Line
	4600 6400 2600 6400
Wire Wire Line
	2200 6750 2400 6750
Wire Wire Line
	1900 4900 2100 4900
Wire Wire Line
	2100 4900 2100 6950
Wire Wire Line
	5000 2250 4900 2250
Wire Wire Line
	4900 2250 4900 2150
Wire Wire Line
	5000 2350 4800 2350
Wire Wire Line
	1350 6250 1350 6350
Wire Wire Line
	1350 6350 1550 6350
Wire Wire Line
	5100 4150 5300 4150
Wire Wire Line
	5300 4150 5300 3750
Wire Wire Line
	5300 3750 5400 3750
Connection ~ 5200 4150
Wire Wire Line
	5100 3650 5100 3450
Connection ~ 5100 3550
Wire Wire Line
	4800 3550 5400 3550
Wire Wire Line
	4800 5150 5400 5150
Connection ~ 5100 5150
Wire Wire Line
	5100 5250 5100 5050
Connection ~ 5200 5750
Wire Wire Line
	5400 5350 5300 5350
Wire Wire Line
	5300 5350 5300 5750
Wire Wire Line
	5300 5750 5100 5750
Wire Wire Line
	5100 5750 5100 5650
Wire Wire Line
	5200 5850 5200 5750
Wire Wire Line
	5100 4450 5100 4550
Wire Bus Line
	4700 2100 4700 6650
Wire Wire Line
	5450 1650 5450 1550
Wire Wire Line
	5650 1550 6000 1550
Wire Wire Line
	5650 1050 5650 950 
Wire Wire Line
	8200 4250 8300 4250
Wire Wire Line
	9600 4200 9600 4300
Wire Wire Line
	9600 5400 9600 5500
Wire Wire Line
	10000 4900 9100 4900
Wire Wire Line
	2000 3450 2400 3450
Connection ~ 2300 3450
$Comp
L GND #PWR01
U 1 1 52241E2B
P 2100 4050
F 0 "#PWR01" H 2100 4050 30  0001 C CNN
F 1 "GND" H 2100 3980 30  0001 C CNN
	1    2100 4050
	1    0    0    -1  
$EndComp
$Comp
L CONN_2 P3
U 1 1 52241E10
P 1650 3550
F 0 "P3" V 1600 3550 40  0000 C CNN
F 1 "AREF" V 1700 3550 40  0000 C CNN
	1    1650 3550
	-1   0    0    1   
$EndComp
$Comp
L R R13
U 1 1 52241BC6
P 9600 6100
F 0 "R13" V 9680 6100 50  0000 C CNN
F 1 "4.7k" V 9600 6100 50  0000 C CNN
	1    9600 6100
	-1   0    0    1   
$EndComp
$Comp
L C C13
U 1 1 52241BC5
P 9600 6750
F 0 "C13" H 9650 6850 50  0000 L CNN
F 1 "10uF" H 9650 6650 50  0000 L CNN
	1    9600 6750
	-1   0    0    -1  
$EndComp
$Comp
L GND #PWR02
U 1 1 52241BC4
P 9600 7050
F 0 "#PWR02" H 9600 7050 30  0001 C CNN
F 1 "GND" H 9600 6980 30  0001 C CNN
	1    9600 7050
	1    0    0    -1  
$EndComp
$Comp
L VAA #PWR03
U 1 1 52241BC3
P 9600 5750
F 0 "#PWR03" H 9600 5810 30  0001 C CNN
F 1 "VAA" H 9600 5860 30  0000 C CNN
	1    9600 5750
	1    0    0    -1  
$EndComp
$Comp
L CONN_2 P13
U 1 1 52241BC2
P 10350 6550
F 0 "P13" V 10300 6550 40  0000 C CNN
F 1 "T_SENS" V 10400 6550 40  0000 C CNN
	1    10350 6550
	1    0    0    1   
$EndComp
Entry Wire Line
	9000 6350 9100 6450
Text Label 9100 6450 0    60   ~ 0
T_E1
$Comp
L GND #PWR04
U 1 1 52241BC1
P 9900 7050
F 0 "#PWR04" H 9900 7050 30  0001 C CNN
F 1 "GND" H 9900 6980 30  0001 C CNN
	1    9900 7050
	1    0    0    -1  
$EndComp
$Comp
L GND #PWR05
U 1 1 52241BAA
P 9900 5500
F 0 "#PWR05" H 9900 5500 30  0001 C CNN
F 1 "GND" H 9900 5430 30  0001 C CNN
	1    9900 5500
	1    0    0    -1  
$EndComp
Text Label 9100 4900 0    60   ~ 0
T_E0
Entry Wire Line
	9000 4800 9100 4900
Text Label 4400 2950 0    60   ~ 0
T_E1
Text Label 4400 2850 0    60   ~ 0
T_E0
$Comp
L CONN_2 P12
U 1 1 52241B52
P 10350 5000
F 0 "P12" V 10300 5000 40  0000 C CNN
F 1 "T_SENS" V 10400 5000 40  0000 C CNN
	1    10350 5000
	1    0    0    1   
$EndComp
$Comp
L VAA #PWR06
U 1 1 52241B22
P 9600 4200
F 0 "#PWR06" H 9600 4260 30  0001 C CNN
F 1 "VAA" H 9600 4310 30  0000 C CNN
	1    9600 4200
	1    0    0    -1  
$EndComp
$Comp
L VAA #PWR07
U 1 1 52241B00
P 3100 950
F 0 "#PWR07" H 3100 1010 30  0001 C CNN
F 1 "VAA" H 3100 1060 30  0000 C CNN
	1    3100 950 
	1    0    0    -1  
$EndComp
$Comp
L GND #PWR08
U 1 1 52241A97
P 9600 5500
F 0 "#PWR08" H 9600 5500 30  0001 C CNN
F 1 "GND" H 9600 5430 30  0001 C CNN
	1    9600 5500
	1    0    0    -1  
$EndComp
$Comp
L C C12
U 1 1 52241A7F
P 9600 5200
F 0 "C12" H 9650 5300 50  0000 L CNN
F 1 "10uF" H 9650 5100 50  0000 L CNN
	1    9600 5200
	-1   0    0    -1  
$EndComp
$Comp
L R R12
U 1 1 52241A5E
P 9600 4550
F 0 "R12" V 9680 4550 50  0000 C CNN
F 1 "4.7k" V 9600 4550 50  0000 C CNN
	1    9600 4550
	-1   0    0    1   
$EndComp
Text Label 8200 4150 0    60   ~ 0
M_PWR
$Comp
L CONN_2 P17
U 1 1 5224053A
P 8650 4350
F 0 "P17" V 8600 4350 40  0000 C CNN
F 1 "M_PWR" V 8700 4350 40  0000 C CNN
	1    8650 4350
	1    0    0    1   
$EndComp
Text Label 4400 3250 0    60   ~ 0
Z_DIR
$Comp
L VCC #PWR09
U 1 1 5221E312
P 5650 950
F 0 "#PWR09" H 5650 1050 30  0001 C CNN
F 1 "VCC" H 5650 1050 30  0000 C CNN
	1    5650 950 
	1    0    0    -1  
$EndComp
$Comp
L R R11
U 1 1 5221E311
P 5650 1300
F 0 "R11" V 5730 1300 50  0000 C CNN
F 1 "1K" V 5650 1300 50  0000 C CNN
	1    5650 1300
	-1   0    0    -1  
$EndComp
Text Label 4800 5150 0    60   ~ 0
Y_END
Text Label 4800 6750 0    60   ~ 0
Z_END
Text Label 4400 4250 0    60   ~ 0
Z_END
Text Label 4400 4350 0    60   ~ 0
X_END
Text Label 4800 3550 0    60   ~ 0
X_END
Text Label 5750 1550 0    60   ~ 0
E_M0
Entry Wire Line
	6000 1550 6100 1450
$Comp
L GND #PWR010
U 1 1 5221D30E
P 5450 1850
F 0 "#PWR010" H 5450 1850 30  0001 C CNN
F 1 "GND" H 5450 1780 30  0001 C CNN
	1    5450 1850
	1    0    0    -1  
$EndComp
Text Label 5750 1750 0    60   ~ 0
Z_M2
Text Label 5750 1650 0    60   ~ 0
XY_M0
Entry Wire Line
	6000 1650 6100 1550
Entry Wire Line
	6000 1750 6100 1650
Entry Wire Line
	6100 1650 6200 1750
$Comp
L R R2
U 1 1 5221D207
P 5450 1300
F 0 "R2" V 5530 1300 50  0000 C CNN
F 1 "1K" V 5450 1300 50  0000 C CNN
	1    5450 1300
	-1   0    0    -1  
$EndComp
$Comp
L VCC #PWR011
U 1 1 5221D1FE
P 5450 950
F 0 "#PWR011" H 5450 1050 30  0001 C CNN
F 1 "VCC" H 5450 1050 30  0000 C CNN
	1    5450 950 
	1    0    0    -1  
$EndComp
Entry Wire Line
	4700 6650 4800 6750
$Comp
L VCC #PWR012
U 1 1 5221AF34
P 5100 6050
F 0 "#PWR012" H 5100 6150 30  0001 C CNN
F 1 "VCC" H 5100 6150 30  0000 C CNN
	1    5100 6050
	1    0    0    -1  
$EndComp
$Comp
L GND #PWR013
U 1 1 5221AF33
P 5200 7450
F 0 "#PWR013" H 5200 7450 30  0001 C CNN
F 1 "GND" H 5200 7380 30  0001 C CNN
	1    5200 7450
	1    0    0    -1  
$EndComp
$Comp
L C C11
U 1 1 5221AF32
P 5100 7050
F 0 "C11" H 5150 7150 50  0000 L CNN
F 1 "100n" H 5150 6950 50  0000 L CNN
	1    5100 7050
	-1   0    0    -1  
$EndComp
$Comp
L R R10
U 1 1 5221AF31
P 5100 6400
F 0 "R10" V 5180 6400 50  0000 C CNN
F 1 "10K" V 5100 6400 50  0000 C CNN
	1    5100 6400
	-1   0    0    -1  
$EndComp
$Comp
L R R7
U 1 1 5221AE70
P 5100 4800
F 0 "R7" V 5180 4800 50  0000 C CNN
F 1 "10K" V 5100 4800 50  0000 C CNN
	1    5100 4800
	-1   0    0    -1  
$EndComp
$Comp
L C C10
U 1 1 5221AE6F
P 5100 5450
F 0 "C10" H 5150 5550 50  0000 L CNN
F 1 "100n" H 5150 5350 50  0000 L CNN
	1    5100 5450
	-1   0    0    -1  
$EndComp
$Comp
L GND #PWR014
U 1 1 5221AE6E
P 5200 5850
F 0 "#PWR014" H 5200 5850 30  0001 C CNN
F 1 "GND" H 5200 5780 30  0001 C CNN
	1    5200 5850
	1    0    0    -1  
$EndComp
$Comp
L VCC #PWR015
U 1 1 5221AE6D
P 5100 4450
F 0 "#PWR015" H 5100 4550 30  0001 C CNN
F 1 "VCC" H 5100 4550 30  0000 C CNN
	1    5100 4450
	1    0    0    -1  
$EndComp
Entry Wire Line
	4700 5050 4800 5150
Entry Wire Line
	4700 3450 4800 3550
$Comp
L VCC #PWR016
U 1 1 5221ADEF
P 5100 2850
F 0 "#PWR016" H 5100 2950 30  0001 C CNN
F 1 "VCC" H 5100 2950 30  0000 C CNN
	1    5100 2850
	1    0    0    -1  
$EndComp
$Comp
L GND #PWR017
U 1 1 5221ADB1
P 5200 4250
F 0 "#PWR017" H 5200 4250 30  0001 C CNN
F 1 "GND" H 5200 4180 30  0001 C CNN
	1    5200 4250
	1    0    0    -1  
$EndComp
$Comp
L C C9
U 1 1 5221AD8E
P 5100 3850
F 0 "C9" H 5150 3950 50  0000 L CNN
F 1 "100n" H 5150 3750 50  0000 L CNN
	1    5100 3850
	-1   0    0    -1  
$EndComp
$Comp
L R R6
U 1 1 5221AD83
P 5100 3200
F 0 "R6" V 5180 3200 50  0000 C CNN
F 1 "10K" V 5100 3200 50  0000 C CNN
	1    5100 3200
	-1   0    0    -1  
$EndComp
$Comp
L CONN_2 P6
U 1 1 5221AD55
P 5750 6850
F 0 "P6" V 5700 6850 40  0000 C CNN
F 1 "Z_END" V 5800 6850 40  0000 C CNN
	1    5750 6850
	1    0    0    1   
$EndComp
$Comp
L CONN_2 P5
U 1 1 5221AD4D
P 5750 5250
F 0 "P5" V 5700 5250 40  0000 C CNN
F 1 "Y_END" V 5800 5250 40  0000 C CNN
	1    5750 5250
	1    0    0    1   
$EndComp
Text Label 4800 2450 0    60   ~ 0
SCL
Text Label 4800 2350 0    60   ~ 0
SDA
Entry Wire Line
	4700 2350 4800 2450
Entry Wire Line
	4700 2250 4800 2350
$Comp
L GND #PWR018
U 1 1 5221A421
P 4900 2650
F 0 "#PWR018" H 4900 2650 30  0001 C CNN
F 1 "GND" H 4900 2580 30  0001 C CNN
	1    4900 2650
	1    0    0    -1  
$EndComp
$Comp
L VCC #PWR019
U 1 1 5221A408
P 4900 2150
F 0 "#PWR019" H 4900 2250 30  0001 C CNN
F 1 "VCC" H 4900 2250 30  0000 C CNN
	1    4900 2150
	1    0    0    -1  
$EndComp
$Comp
L +5V #PWR020
U 1 1 52219F6F
P 1550 6250
F 0 "#PWR020" H 1550 6340 20  0001 C CNN
F 1 "+5V" H 1550 6340 30  0000 C CNN
	1    1550 6250
	1    0    0    -1  
$EndComp
$Comp
L GND #PWR021
U 1 1 52219EA5
P 1900 7650
F 0 "#PWR021" H 1900 7650 30  0001 C CNN
F 1 "GND" H 1900 7580 30  0001 C CNN
	1    1900 7650
	1    0    0    -1  
$EndComp
$Comp
L R R8
U 1 1 52219E98
P 1900 6600
F 0 "R8" V 1980 6600 50  0000 C CNN
F 1 "1K" V 1900 6600 50  0000 C CNN
	1    1900 6600
	-1   0    0    1   
$EndComp
$Comp
L R R9
U 1 1 52219E6C
P 1900 7300
F 0 "R9" V 1980 7300 50  0000 C CNN
F 1 "2K" V 1900 7300 50  0000 C CNN
	1    1900 7300
	-1   0    0    1   
$EndComp
$Comp
L +5V #PWR022
U 1 1 522198BD
P 2000 4400
F 0 "#PWR022" H 2000 4490 20  0001 C CNN
F 1 "+5V" H 2000 4490 30  0000 C CNN
	1    2000 4400
	1    0    0    -1  
$EndComp
$Comp
L CONN_4 P2
U 1 1 522195FF
P 5350 2400
F 0 "P2" V 5300 2400 50  0000 C CNN
F 1 "I2C" V 5400 2400 50  0000 C CNN
	1    5350 2400
	1    0    0    1   
$EndComp
Text Label 6200 6450 0    60   ~ 0
E_M0
Text Label 6200 6350 0    60   ~ 0
E_M1
Text Label 6200 6250 0    60   ~ 0
E_M2
Text Label 6200 5250 0    60   ~ 0
E_M0
Text Label 6200 5150 0    60   ~ 0
E_M1
Text Label 6200 5050 0    60   ~ 0
E_M2
Text Label 6200 4050 0    60   ~ 0
Z_M0
Text Label 6200 3950 0    60   ~ 0
Z_M1
Text Label 6200 3850 0    60   ~ 0
Z_M2
Text Label 6200 2850 0    60   ~ 0
XY_M0
Text Label 6200 2750 0    60   ~ 0
XY_M1
Text Label 6200 2650 0    60   ~ 0
XY_M2
Text Label 6200 1450 0    60   ~ 0
XY_M2
Text Label 6200 1550 0    60   ~ 0
XY_M1
Text Label 6200 1650 0    60   ~ 0
XY_M0
Entry Wire Line
	6100 6350 6200 6450
Entry Wire Line
	6100 6250 6200 6350
Entry Wire Line
	6100 6150 6200 6250
Entry Wire Line
	6100 4950 6200 5050
Entry Wire Line
	6100 5050 6200 5150
Entry Wire Line
	6100 5150 6200 5250
Entry Wire Line
	6100 3950 6200 4050
Entry Wire Line
	6100 3850 6200 3950
Entry Wire Line
	6100 3750 6200 3850
Entry Wire Line
	6100 2550 6200 2650
Entry Wire Line
	6100 2650 6200 2750
Entry Wire Line
	6100 2750 6200 2850
Entry Wire Line
	6100 1550 6200 1650
Entry Wire Line
	6100 1450 6200 1550
Entry Wire Line
	6100 1350 6200 1450
Text Label 2300 6750 0    60   ~ 0
RX
Text Label 2300 6250 0    60   ~ 0
TX
Entry Wire Line
	2400 6750 2500 6850
Entry Wire Line
	2400 6250 2500 6350
Entry Bus Bus
	2500 6500 2600 6400
Entry Bus Bus
	4600 6400 4700 6300
$Comp
L GND #PWR023
U 1 1 522171CF
P 2000 5800
F 0 "#PWR023" H 2000 5800 30  0001 C CNN
F 1 "GND" H 2000 5730 30  0001 C CNN
	1    2000 5800
	1    0    0    -1  
$EndComp
$Comp
L CONN_13X2 P1
U 1 1 52217089
P 1500 5100
F 0 "P1" H 1500 5800 60  0000 C CNN
F 1 "RPI_PIN_HEADER" V 1500 5100 50  0000 C CNN
	1    1500 5100
	1    0    0    -1  
$EndComp
Text Label 9100 3100 0    60   ~ 0
E1_HT
Text Label 9100 3800 0    60   ~ 0
E0_HT
Text Label 9100 2400 0    60   ~ 0
XY_HT
Text Label 6200 6550 0    60   ~ 0
E1_EN
Text Label 6200 5950 0    60   ~ 0
E_ST
Text Label 6200 5850 0    60   ~ 0
E_DIR
Text Label 6200 5350 0    60   ~ 0
E0_EN
Text Label 6200 4750 0    60   ~ 0
E_ST
Text Label 6200 4650 0    60   ~ 0
E_DIR
Text Label 6200 4150 0    60   ~ 0
XYZ_EN
Text Label 6200 3550 0    60   ~ 0
Z_ST
Text Label 6200 3450 0    60   ~ 0
Z_DIR
Text Label 6200 2950 0    60   ~ 0
XYZ_EN
Text Label 6200 2350 0    60   ~ 0
Y_ST
Text Label 6200 2250 0    60   ~ 0
Y_DIR
Text Label 6200 1750 0    60   ~ 0
XYZ_EN
Text Label 6200 1150 0    60   ~ 0
X_ST
Text Label 6200 1050 0    60   ~ 0
X_DIR
$Comp
L CONN_2 P4
U 1 1 5220CC17
P 5750 3650
F 0 "P4" V 5700 3650 40  0000 C CNN
F 1 "X_END" V 5800 3650 40  0000 C CNN
	1    5750 3650
	1    0    0    1   
$EndComp
Text Label 2300 1750 0    60   ~ 0
RST
$Comp
L R R5
U 1 1 5220BD2B
P 9650 3800
F 0 "R5" V 9730 3800 50  0000 C CNN
F 1 "R" V 9650 3800 50  0000 C CNN
	1    9650 3800
	0    -1   -1   0   
$EndComp
$Comp
L R R4
U 1 1 5220BD26
P 9650 3100
F 0 "R4" V 9730 3100 50  0000 C CNN
F 1 "R" V 9650 3100 50  0000 C CNN
	1    9650 3100
	0    -1   -1   0   
$EndComp
$Comp
L R R3
U 1 1 5220BD23
P 9650 2400
F 0 "R3" V 9730 2400 50  0000 C CNN
F 1 "R" V 9650 2400 50  0000 C CNN
	1    9650 2400
	0    -1   -1   0   
$EndComp
Text Label 8200 6550 0    60   ~ 0
E_PWR
Text Label 10500 4000 0    60   ~ 0
H_PWR
$Comp
L CONN_2 P23
U 1 1 5220BAF8
P 10950 4200
F 0 "P23" V 10900 4200 40  0000 C CNN
F 1 "H_PWR" V 11000 4200 40  0000 C CNN
	1    10950 4200
	1    0    0    1   
$EndComp
$Comp
L CONN_2 P22
U 1 1 5220BAB9
P 10950 3600
F 0 "P22" V 10900 3600 40  0000 C CNN
F 1 "HEATER" V 11000 3600 40  0000 C CNN
	1    10950 3600
	1    0    0    -1  
$EndComp
$Comp
L MOSFET_N Q4
U 1 1 5220BAB3
P 10200 3800
F 0 "Q4" H 10210 3970 60  0000 R CNN
F 1 "LR024N" H 10210 3650 60  0000 R CNN
	1    10200 3800
	1    0    0    -1  
$EndComp
$Comp
L CONN_2 P21
U 1 1 5220BA92
P 10950 2900
F 0 "P21" V 10900 2900 40  0000 C CNN
F 1 "HEATER" V 11000 2900 40  0000 C CNN
	1    10950 2900
	1    0    0    -1  
$EndComp
Entry Wire Line
	9000 3700 9100 3800
Entry Wire Line
	9000 3000 9100 3100
$Comp
L MOSFET_N Q3
U 1 1 5220BA62
P 10200 3100
F 0 "Q3" H 10210 3270 60  0000 R CNN
F 1 "LR024N" H 10210 2950 60  0000 R CNN
	1    10200 3100
	1    0    0    -1  
$EndComp
$Comp
L CONN_2 P18
U 1 1 5220B8F9
P 8650 6750
F 0 "P18" V 8600 6750 40  0000 C CNN
F 1 "E_PWR" V 8700 6750 40  0000 C CNN
	1    8650 6750
	1    0    0    1   
$EndComp
$Comp
L CONN_2 P20
U 1 1 5220B75B
P 10950 2200
F 0 "P20" V 10900 2200 40  0000 C CNN
F 1 "HEATER" V 11000 2200 40  0000 C CNN
	1    10950 2200
	1    0    0    -1  
$EndComp
Entry Wire Line
	9000 2300 9100 2400
$Comp
L GND #PWR024
U 1 1 5220B730
P 10400 4400
F 0 "#PWR024" H 10400 4400 30  0001 C CNN
F 1 "GND" H 10400 4330 30  0001 C CNN
	1    10400 4400
	1    0    0    -1  
$EndComp
$Comp
L MOSFET_N Q2
U 1 1 5220B66A
P 10200 2400
F 0 "Q2" H 10210 2570 60  0000 R CNN
F 1 "LR024N" H 10210 2250 60  0000 R CNN
	1    10200 2400
	1    0    0    -1  
$EndComp
Entry Bus Bus
	8900 750  9000 850 
Entry Bus Bus
	6100 850  6200 750 
Entry Bus Bus
	6000 2000 6100 1900
Entry Wire Line
	6100 1650 6200 1750
Entry Wire Line
	6100 1050 6200 1150
Entry Wire Line
	6100 950  6200 1050
$Comp
L VCC #PWR025
U 1 1 521F299D
P 6500 950
F 0 "#PWR025" H 6500 1050 30  0001 C CNN
F 1 "VCC" H 6500 1050 30  0000 C CNN
	1    6500 950 
	1    0    0    -1  
$EndComp
$Comp
L STEP_STICK P7
U 1 1 521F299C
P 7250 1400
F 0 "P7" H 7250 1900 60  0000 C CNN
F 1 "STEP_STICK" H 7250 900 60  0000 C CNN
	1    7250 1400
	1    0    0    -1  
$EndComp
$Comp
L VCC #PWR026
U 1 1 521F299B
P 8000 950
F 0 "#PWR026" H 8000 1050 30  0001 C CNN
F 1 "VCC" H 8000 1050 30  0000 C CNN
	1    8000 950 
	1    0    0    -1  
$EndComp
Entry Bus Bus
	4600 2000 4700 2100
Entry Wire Line
	6100 6450 6200 6550
Entry Wire Line
	6100 5850 6200 5950
Entry Wire Line
	6100 5750 6200 5850
$Comp
L STEP_STICK P11
U 1 1 521F25E7
P 7250 6200
F 0 "P11" H 7250 6700 60  0000 C CNN
F 1 "STEP_STICK" H 7250 5700 60  0000 C CNN
	1    7250 6200
	1    0    0    -1  
$EndComp
$Comp
L GND #PWR027
U 1 1 521F25E4
P 8100 6950
F 0 "#PWR027" H 8100 6950 30  0001 C CNN
F 1 "GND" H 8100 6880 30  0001 C CNN
	1    8100 6950
	1    0    0    -1  
$EndComp
$Comp
L STEP_STICK P10
U 1 1 521F25D7
P 7250 5000
F 0 "P10" H 7250 5500 60  0000 C CNN
F 1 "STEP_STICK" H 7250 4500 60  0000 C CNN
	1    7250 5000
	1    0    0    -1  
$EndComp
Entry Wire Line
	6100 4550 6200 4650
Entry Wire Line
	6100 4650 6200 4750
Entry Wire Line
	6100 5250 6200 5350
Entry Wire Line
	6100 4050 6200 4150
Entry Wire Line
	6100 3450 6200 3550
Entry Wire Line
	6100 3350 6200 3450
$Comp
L STEP_STICK P9
U 1 1 521F25B5
P 7250 3800
F 0 "P9" H 7250 4300 60  0000 C CNN
F 1 "STEP_STICK" H 7250 3300 60  0000 C CNN
	1    7250 3800
	1    0    0    -1  
$EndComp
$Comp
L STEP_STICK P8
U 1 1 521F2072
P 7250 2600
F 0 "P8" H 7250 3100 60  0000 C CNN
F 1 "STEP_STICK" H 7250 2100 60  0000 C CNN
	1    7250 2600
	1    0    0    -1  
$EndComp
$Comp
L R R1
U 1 1 510F756C
P 750 1350
F 0 "R1" V 830 1350 50  0000 C CNN
F 1 "4.7k" V 750 1350 50  0000 C CNN
	1    750  1350
	-1   0    0    1   
$EndComp
$Comp
L C C8
U 1 1 4D04C2DE
P 4400 1750
F 0 "C8" H 4450 1850 50  0000 L CNN
F 1 "100n" H 4450 1650 50  0000 L CNN
	1    4400 1750
	0    -1   1    0   
$EndComp
$Comp
L VCC #PWR028
U 1 1 4C809CF0
P 1350 6250
F 0 "#PWR028" H 1350 6350 30  0001 C CNN
F 1 "VCC" H 1350 6350 30  0000 C CNN
	1    1350 6250
	1    0    0    -1  
$EndComp
$Comp
L GND #PWR029
U 1 1 4C809CE2
P 1000 5800
F 0 "#PWR029" H 1000 5800 30  0001 C CNN
F 1 "GND" H 1000 5730 30  0001 C CNN
	1    1000 5800
	1    0    0    -1  
$EndComp
Entry Wire Line
	6100 2150 6200 2250
Entry Wire Line
	6100 2250 6200 2350
Entry Wire Line
	6100 2850 6200 2950
$Comp
L GND #PWR030
U 1 1 4C2FE738
P 1050 1600
F 0 "#PWR030" H 1050 1600 30  0001 C CNN
F 1 "GND" H 1050 1530 30  0001 C CNN
	1    1050 1600
	1    0    0    -1  
$EndComp
$Comp
L C C3
U 1 1 4C2FE713
P 1050 1300
F 0 "C3" H 1100 1400 50  0000 L CNN
F 1 "100n" H 1100 1200 50  0000 L CNN
	1    1050 1300
	1    0    0    -1  
$EndComp
$Comp
L GND #PWR031
U 1 1 4C2F1390
P 1400 1600
F 0 "#PWR031" H 1400 1600 30  0001 C CNN
F 1 "GND" H 1400 1530 30  0001 C CNN
	1    1400 1600
	1    0    0    -1  
$EndComp
$Comp
L C C5
U 1 1 4C2F131E
P 1400 1300
F 0 "C5" H 1450 1400 50  0000 L CNN
F 1 "100n" H 1450 1200 50  0000 L CNN
	1    1400 1300
	1    0    0    -1  
$EndComp
$Comp
L GND #PWR032
U 1 1 4C2EB86C
P 1800 1600
F 0 "#PWR032" H 1800 1600 30  0001 C CNN
F 1 "GND" H 1800 1530 30  0001 C CNN
	1    1800 1600
	1    0    0    -1  
$EndComp
$Comp
L C C6
U 1 1 4C2EB83E
P 1800 1300
F 0 "C6" H 1850 1400 50  0000 L CNN
F 1 "10uF" H 1850 1200 50  0000 L CNN
	1    1800 1300
	1    0    0    -1  
$EndComp
Text Label 4400 5650 0    60   ~ 0
XY_HT
Text Label 4400 3450 0    60   ~ 0
E0_HT
Text Label 4400 5450 0    60   ~ 0
E1_HT
Text Label 4400 5350 0    60   ~ 0
E_DIR
Text Label 4400 5250 0    60   ~ 0
E_ST
Text Label 4400 5550 0    60   ~ 0
E_M2
Text Label 4400 5050 0    60   ~ 0
TX
Text Label 4400 4950 0    60   ~ 0
RX
Text Label 4400 4750 0    60   ~ 0
XYZ_EN
Text Label 4400 4650 0    60   ~ 0
XY_M1
Text Label 4400 4550 0    60   ~ 0
XY_M2
Text Label 4400 4450 0    60   ~ 0
Y_END
Text Label 4400 4150 0    60   ~ 0
SDA
Text Label 4400 4050 0    60   ~ 0
SCL
Text Label 4400 3850 0    60   ~ 0
SCK
Text Label 4400 3750 0    60   ~ 0
MISO
Text Label 4400 3650 0    60   ~ 0
MOSI
Text Label 4400 5150 0    60   ~ 0
E_M1
Text Label 4400 3550 0    60   ~ 0
E1_EN
Text Label 4400 3350 0    60   ~ 0
E0_EN
Text Label 4400 3150 0    60   ~ 0
Z_ST
Entry Wire Line
	4600 5650 4700 5550
Entry Wire Line
	4600 5550 4700 5450
Entry Wire Line
	4600 5450 4700 5350
Entry Wire Line
	4600 5350 4700 5250
Entry Wire Line
	4600 5250 4700 5150
Entry Wire Line
	4600 5150 4700 5050
Entry Wire Line
	4600 5050 4700 4950
Entry Wire Line
	4600 4950 4700 4850
Entry Wire Line
	4600 4750 4700 4650
Entry Wire Line
	4600 4650 4700 4550
Entry Wire Line
	4600 4550 4700 4450
Entry Wire Line
	4600 4450 4700 4350
Entry Wire Line
	4600 4350 4700 4250
Entry Wire Line
	4600 4250 4700 4150
Entry Wire Line
	4600 4150 4700 4050
Entry Wire Line
	4600 4050 4700 3950
Entry Wire Line
	4600 3850 4700 3750
Entry Wire Line
	4600 3750 4700 3650
Entry Wire Line
	4600 3650 4700 3550
Entry Wire Line
	4600 3550 4700 3450
Entry Wire Line
	4600 3450 4700 3350
Entry Wire Line
	4600 3350 4700 3250
Entry Wire Line
	4600 3150 4700 3050
Entry Wire Line
	4600 3250 4700 3150
Entry Bus Bus
	6000 2000 6100 2100
Text Label 3750 1550 0    60   ~ 0
MOSI
Text Label 3750 1250 0    60   ~ 0
SCK
Text Label 3750 1150 0    60   ~ 0
MISO
Entry Wire Line
	3650 1650 3750 1550
Entry Wire Line
	3650 1250 3750 1150
Entry Wire Line
	3650 1350 3750 1250
Entry Bus Bus
	3650 1900 3750 2000
Entry Bus Bus
	4700 2100 4800 2000
Text Label 4400 2350 0    60   ~ 0
Z_M1
Text Label 4400 2450 0    60   ~ 0
Y_DIR
Text Label 4400 2550 0    60   ~ 0
Y_ST
Text Label 4400 2650 0    60   ~ 0
X_DIR
Text Label 4400 2750 0    60   ~ 0
X_ST
Text Label 4400 2250 0    60   ~ 0
Z_M0
Entry Wire Line
	4600 2950 4700 2850
Entry Wire Line
	4600 2850 4700 2750
Entry Wire Line
	4600 2750 4700 2650
Entry Wire Line
	4600 2650 4700 2550
Entry Wire Line
	4600 2550 4700 2450
Entry Wire Line
	4600 2450 4700 2350
Entry Wire Line
	4600 2350 4700 2250
Entry Wire Line
	4600 2250 4700 2150
$Comp
L VCC #PWR033
U 1 1 4C28A4A2
P 4800 950
F 0 "#PWR033" H 4800 1050 30  0001 C CNN
F 1 "VCC" H 4800 1050 30  0000 C CNN
	1    4800 950 
	1    0    0    -1  
$EndComp
$Comp
L GND #PWR034
U 1 1 4C28A492
P 4800 1850
F 0 "#PWR034" H 4800 1850 30  0001 C CNN
F 1 "GND" H 4800 1780 30  0001 C CNN
	1    4800 1850
	1    0    0    -1  
$EndComp
$Comp
L AVR-ISP-6 J2
U 1 1 4C28A3C6
P 4375 1250
F 0 "J2" H 4225 1500 50  0000 C CNN
F 1 "AVR-ISP-6" H 4125 975 50  0000 L BNN
F 2 "AVR-ISP-6" V 3875 1250 50  0001 C CNN
	1    4375 1250
	1    0    0    -1  
$EndComp
$Comp
L GND #PWR035
U 1 1 4C2785F2
P 2300 4050
F 0 "#PWR035" H 2300 4050 30  0001 C CNN
F 1 "GND" H 2300 3980 30  0001 C CNN
	1    2300 4050
	1    0    0    -1  
$EndComp
$Comp
L C C4
U 1 1 4C2785E7
P 2300 3750
F 0 "C4" H 2350 3850 50  0000 L CNN
F 1 "100n" H 2350 3650 50  0000 L CNN
	1    2300 3750
	1    0    0    -1  
$EndComp
$Comp
L GND #PWR036
U 1 1 4C2785C7
P 3400 6150
F 0 "#PWR036" H 3400 6150 30  0001 C CNN
F 1 "GND" H 3400 6080 30  0001 C CNN
	1    3400 6150
	1    0    0    -1  
$EndComp
$Comp
L GND #PWR037
U 1 1 4C27857D
P 3100 1600
F 0 "#PWR037" H 3100 1600 30  0001 C CNN
F 1 "GND" H 3100 1530 30  0001 C CNN
	1    3100 1600
	1    0    0    -1  
$EndComp
$Comp
L C C7
U 1 1 4C27856F
P 3100 1300
F 0 "C7" H 3150 1400 50  0000 L CNN
F 1 "100n" H 3150 1200 50  0000 L CNN
	1    3100 1300
	1    0    0    -1  
$EndComp
$Comp
L GND #PWR038
U 1 1 4C2784F3
P 1300 3350
F 0 "#PWR038" H 1300 3350 30  0001 C CNN
F 1 "GND" H 1300 3280 30  0001 C CNN
	1    1300 3350
	1    0    0    -1  
$EndComp
$Comp
L VCC #PWR039
U 1 1 4C27846C
P 2100 950
F 0 "#PWR039" H 2100 1050 30  0001 C CNN
F 1 "VCC" H 2100 1050 30  0000 C CNN
	1    2100 950 
	1    0    0    -1  
$EndComp
$Comp
L INDUCTOR L1
U 1 1 4C278438
P 2500 1000
F 0 "L1" V 2450 1000 40  0000 C CNN
F 1 "120uH" V 2600 1000 40  0000 C CNN
	1    2500 1000
	0    -1   -1   0   
$EndComp
$Comp
L C C1
U 1 1 4C278234
P 1600 2450
F 0 "C1" V 1650 2550 50  0000 L CNN
F 1 "22p" V 1650 2300 50  0000 L CNN
	1    1600 2450
	0    -1   -1   0   
$EndComp
$Comp
L C C2
U 1 1 4C2781F9
P 1600 3250
F 0 "C2" V 1650 3350 50  0000 L CNN
F 1 "22p" V 1650 3100 50  0000 L CNN
	1    1600 3250
	0    -1   -1   0   
$EndComp
$Comp
L CRYSTAL X1
U 1 1 4C2781C0
P 1900 2850
F 0 "X1" V 1900 3000 60  0000 C CNN
F 1 "16MHz" H 1900 2700 60  0000 C CNN
	1    1900 2850
	0    -1   -1   0   
$EndComp
$Comp
L ATMEGA32-A IC1
U 1 1 4C25C21E
P 3400 3950
F 0 "IC1" H 2600 5780 50  0000 L BNN
F 1 "ATMEGA32-A" H 3650 2050 50  0000 L BNN
F 2 "TQFP44" H 3900 1975 50  0001 C CNN
	1    3400 3950
	1    0    0    -1  
$EndComp
$EndSCHEMATC
