PCBNEW-LibModule-V1  Сб 31 авг 2013 12:45:25
# encoding utf-8
$INDEX
STEP_STICK
$EndINDEX
$MODULE STEP_STICK
Po 0 0 0 15 52219101 00000000 ~~
Li STEP_STICK
Sc 00000000
AR STEP_STICK
Op 0 0 0
T0 0 1000 600 600 0 120 N V 21 N "STEP_STICK"
T1 0 -1000 600 600 0 120 N V 21 N "VAL**"
DA 3500 2500 4000 2500 900 150 21
DA -3500 2500 -3500 3000 900 150 21
DA -3500 -2500 -4000 -2500 900 150 21
DA 3500 -2500 3500 -3000 900 150 21
DS 3500 -3000 -3500 -3000 150 21
DS -3500 3000 3500 3000 150 21
DS -4000 -2500 -4000 2500 150 21
DS 4000 -2500 4000 2500 150 21
$PAD
Sh "1" C 591 591 0 0 0
Dr 315 0 0
At STD N 00E0FFFF
Ne 0 ""
Po -3500 -2500
$EndPAD
$PAD
Sh "2" C 591 591 0 0 0
Dr 315 0 0
At STD N 00E0FFFF
Ne 0 ""
Po -2500 -2500
$EndPAD
$PAD
Sh "3" C 591 591 0 0 0
Dr 315 0 0
At STD N 00E0FFFF
Ne 0 ""
Po -1500 -2500
$EndPAD
$PAD
Sh "4" C 591 591 0 0 0
Dr 315 0 0
At STD N 00E0FFFF
Ne 0 ""
Po -500 -2500
$EndPAD
$PAD
Sh "5" C 591 591 0 0 0
Dr 315 0 0
At STD N 00E0FFFF
Ne 0 ""
Po 500 -2500
$EndPAD
$PAD
Sh "6" C 591 591 0 0 0
Dr 315 0 0
At STD N 00E0FFFF
Ne 0 ""
Po 1500 -2500
$EndPAD
$PAD
Sh "7" C 591 591 0 0 0
Dr 315 0 0
At STD N 00E0FFFF
Ne 0 ""
Po 2500 -2500
$EndPAD
$PAD
Sh "8" C 591 591 0 0 0
Dr 315 0 0
At STD N 00E0FFFF
Ne 0 ""
Po 3500 -2500
$EndPAD
$PAD
Sh "9" C 591 591 0 0 0
Dr 315 0 0
At STD N 00E0FFFF
Ne 0 ""
Po 3500 2500
$EndPAD
$PAD
Sh "10" C 591 591 0 0 0
Dr 315 0 0
At STD N 00E0FFFF
Ne 0 ""
Po 2500 2500
$EndPAD
$PAD
Sh "11" C 591 591 0 0 0
Dr 315 0 0
At STD N 00E0FFFF
Ne 0 ""
Po 1500 2500
$EndPAD
$PAD
Sh "12" C 591 591 0 0 0
Dr 315 0 0
At STD N 00E0FFFF
Ne 0 ""
Po 500 2500
$EndPAD
$PAD
Sh "13" C 591 591 0 0 0
Dr 315 0 0
At STD N 00E0FFFF
Ne 0 ""
Po -500 2500
$EndPAD
$PAD
Sh "14" C 591 591 0 0 0
Dr 315 0 0
At STD N 00E0FFFF
Ne 0 ""
Po -1500 2500
$EndPAD
$PAD
Sh "15" C 591 591 0 0 0
Dr 315 0 0
At STD N 00E0FFFF
Ne 0 ""
Po -2500 2500
$EndPAD
$PAD
Sh "16" C 591 591 0 0 0
Dr 315 0 0
At STD N 00E0FFFF
Ne 0 ""
Po -3500 2500
$EndPAD
$EndMODULE  STEP_STICK
$EndLIBRARY
